Sessões, buscas e navegação na Wikimedia
…
Na observação anterior vimos que a taxa geral não variava muito. Mas quando detalhamos o dado agrupando pelos grupos de pesquisa presentes na base podemos perceber o quanto o grupo A possui maiores taxas de clicks em comparação com o grupo B.

2 - Quais resultados as pessoas tendem a tentar primeiro? Como isso muda no dia-a-dia?

Na base de dados existe um atributo que representa qual era a posição do link da página visitada no mecanismo de busca de páginas. Agrupando os dados por esse campo temos:

buscas %>%
    filter(!is.na(first_click)) %>%
    group_by(first_click) %>%
    count() %>%
    arrange(desc(n)) %>%
    rename("Posição na página" = first_click, "Total de registros" = n)

## # A tibble: 189 x 2
## # Groups:   Posição na página [189]
##    `Posição na página` `Total de registros`
##                  <int>                <int>
##  1                   1                21013
##  2                   2                 4705
##  3                   3                 2379
##  4                   4                 1297
##  5                   5                  820
##  6                   6                  574
##  7                   7                  396
##  8                   8                  270
##  9                   9                  225
## 10                  10                  196
## # ... with 179 more rows

É claramente visível que as pessoas interagem mais com o primeiro resultado. Como será que essa preferência se comporta quando olhamos esse dados ao longo do dia?

buscas = buscas %>%
    mutate(turno = case_when(hour(session_start_date) >= 0 & hour(session_start_date) < 12 ~ "Manhã", 
                            hour(session_start_date) >= 12 & hour(session_start_date) < 18 ~ "Tarde", 
                            hour(session_start_date) >= 18 & hour(session_start_date) <= 23 ~ "Noite"))
buscas %>%   
    filter(!is.na(first_click)) %>%
    group_by(first_click, turno) %>%
    count() %>%
    arrange(desc(n)) %>%
    rename("Posição na página" = first_click, "Turno" = turno, "Buscas" = n)

## # A tibble: 289 x 3
## # Groups:   Posição na página, Turno [289]
##    `Posição na página` Turno Buscas
##                  <int> <chr>  <int>
##  1                   1 Manhã   8444
##  2                   1 Tarde   7190
##  3                   1 Noite   5379
##  4                   2 Manhã   1934
##  5                   2 Tarde   1552
##  6                   2 Noite   1219
##  7                   3 Manhã    982
##  8                   3 Tarde    796
##  9                   3 Noite    601
## 10                   4 Manhã    529
## # ... with 279 more rows
…
